{
    "total": 96,
    "search_time": 233,
    "offset": 0,
    "limit": 50,
    "next": {
        "href": "https://api.8798-f464fa20.eu-de.ri.apiconnect.cloud.ibm.com/analytics/ibm-managed-analytics-service-v2/catalogs/tmfb/gateway/events?app_name=equals%3Azingtechprdgateway&api_name=equals%3Acash-deposit-non-bvs-api&response_body=contains%3APENDING&timeframe=last24hours&fields=app_name%2Cglobal_transaction_id%2Cresponse_body&offset=50&limit=50"
    },
    "first": {
        "href": "https://api.8798-f464fa20.eu-de.ri.apiconnect.cloud.ibm.com/analytics/ibm-managed-analytics-service-v2/catalogs/tmfb/gateway/events?app_name=equals%3Azingtechprdgateway&api_name=equals%3Acash-deposit-non-bvs-api&response_body=contains%3APENDING&timeframe=last24hours&fields=app_name%2Cglobal_transaction_id%2Cresponse_body&offset=0&limit=50"
    },
    "last": {
        "href": "https://api.8798-f464fa20.eu-de.ri.apiconnect.cloud.ibm.com/analytics/ibm-managed-analytics-service-v2/catalogs/tmfb/gateway/events?app_name=equals%3Azingtechprdgateway&api_name=equals%3Acash-deposit-non-bvs-api&response_body=contains%3APENDING&timeframe=last24hours&fields=app_name%2Cglobal_transaction_id%2Cresponse_body&offset=46&limit=50"
    },
    "events": [
        {
            "app_name": "zingtechprdgateway",
            "datetime": "2025-05-19T09:33:32.327Z",
            "event_id": "eafb3808d5484a95ee30e4f9728de5b1b6062aa7",
            "global_transaction_id": "7fd914a5682afaec02a81591",
            "response_body": "{\"ResponseCode\":\"012\",\"ResponseMessage\":\"PENDING\",\"moreInformation\":\"Backend did not respond within specified time\"}"
        },
        {
            "app_name": "zingtechprdgateway",
            "datetime": "2025-05-19T09:33:32.294Z",
            "event_id": "6d2f61686df56b93e57ebe788873a2acd660590c",
            "global_transaction_id": "9493e454682afaec02a8a141",
            "response_body": "{\"ResponseCode\":\"012\",\"ResponseMessage\":\"PENDING\",\"moreInformation\":\"Backend did not respond within specified time\"}"
        },
        {
            "app_name": "zingtechprdgateway",
            "datetime": "2025-05-19T09:33:31.992Z",
            "event_id": "a679dc121a2f72735ff5f2e16dba03d1dc88851c",
            "global_transaction_id": "7fd914a5682afaeb02a81551",
            "response_body": "{\"ResponseCode\":\"012\",\"ResponseMessage\":\"PENDING\",\"moreInformation\":\"Backend did not respond within specified time\"}"
        },
        {
            "app_name": "zingtechprdgateway",
            "datetime": "2025-05-19T09:33:31.914Z",
            "event_id": "9c1ea3cb0b1f4cfedc8e62b5f9060bf85ce35ae4",
            "global_transaction_id": "dd51bf1b682afaeb02a83911",
            "response_body": "{\"ResponseCode\":\"012\",\"ResponseMessage\":\"PENDING\",\"moreInformation\":\"Backend did not respond within specified time\"}"
        },
        {
            "app_name": "zingtechprdgateway",
            "datetime": "2025-05-19T09:33:31.500Z",
            "event_id": "f7420cc92903f43d6b3441eae7387859297f16b9",
            "global_transaction_id": "dd51bf1b682afaeb02aa21d0",
            "response_body": "{\"ResponseCode\":\"012\",\"ResponseMessage\":\"PENDING\",\"moreInformation\":\"Backend did not respond within specified time\"}"
        },
        {
            "app_name": "zingtechprdgateway",
            "datetime": "2025-05-19T09:33:31.003Z",
            "event_id": "f52c858272b035695f01353386207cec8ba67eec",
            "global_transaction_id": "dd51bf1b682afaeb02a838a1",
            "response_body": "{\"ResponseCode\":\"012\",\"ResponseMessage\":\"PENDING\",\"moreInformation\":\"Backend did not respond within specified time\"}"
        },
        {
            "app_name": "zingtechprdgateway",
            "datetime": "2025-05-19T09:33:30.574Z",
            "event_id": "1f62a44d504d46771cfa3987dc522e16aaf32c28",
            "global_transaction_id": "dd51bf1b682afaea02a83871",
            "response_body": "{\"ResponseCode\":\"012\",\"ResponseMessage\":\"PENDING\",\"moreInformation\":\"Backend did not respond within specified time\"}"
        },
        {
            "app_name": "zingtechprdgateway",
            "datetime": "2025-05-19T08:57:39.877Z",
            "event_id": "e63adcc866ff4916951f2078bc490359e9eaf80e",
            "global_transaction_id": "9493e454682af28302a3d181",
            "response_body": "{\"ResponseCode\":\"012\",\"ResponseMessage\":\"PENDING\",\"moreInformation\":\"Backend did not respond within specified time\"}"
        },
        {
            "app_name": "zingtechprdgateway",
            "datetime": "2025-05-19T08:28:58.392Z",
            "event_id": "eb4a9f66b3f6f30d809200c20278e47ec2e3d986",
            "global_transaction_id": "9493e454682aebca029fbfc1",
            "response_body": "{\"ResponseCode\":\"012\",\"ResponseMessage\":\"PENDING\",\"moreInformation\":\"Backend did not respond within specified time\"}"
        },
        {
            "app_name": "zingtechprdgateway",
            "datetime": "2025-05-19T08:24:17.433Z",
            "event_id": "04b9f6757209391c302800f9c61710c718611e05",
            "global_transaction_id": "dd51bf1b682aeab1029ec301",
            "response_body": "{\"ResponseCode\":\"012\",\"ResponseMessage\":\"PENDING\",\"moreInformation\":\"Backend did not respond within specified time\"}"
        },
        {
            "app_name": "zingtechprdgateway",
            "datetime": "2025-05-19T08:24:17.280Z",
            "event_id": "c5842bd243fed2c75ea5057b4ea0f3047313418b",
            "global_transaction_id": "dd51bf1b682aeab102a07730",
            "response_body": "{\"ResponseCode\":\"012\",\"ResponseMessage\":\"PENDING\",\"moreInformation\":\"Backend did not respond within specified time\"}"
        },
        {
            "app_name": "zingtechprdgateway",
            "datetime": "2025-05-19T07:41:01.649Z",
            "event_id": "e5b89c535cd7316175f772469714710cd107307f",
            "global_transaction_id": "dd51bf1b682ae08d029905e1",
            "response_body": "{\"ResponseCode\":\"012\",\"ResponseMessage\":\"PENDING\",\"moreInformation\":\"Backend did not respond within specified time\"}"
        },
        {
            "app_name": "zingtechprdgateway",
            "datetime": "2025-05-19T06:57:32.387Z",
            "event_id": "8d65a350a327a844d2e57729adcbf7701aad9060",
            "global_transaction_id": "9493e454682ad65c02945460",
            "response_body": "{\"ResponseCode\":\"012\",\"ResponseMessage\":\"PENDING\",\"moreInformation\":\"Backend did not respond within specified time\"}"
        },
        {
            "app_name": "zingtechprdgateway",
            "datetime": "2025-05-19T06:57:31.745Z",
            "event_id": "0a9604355aab94466cdc178d23ef3186a48bf020",
            "global_transaction_id": "dd51bf1b682ad65b0292ebc1",
            "response_body": "{\"ResponseCode\":\"012\",\"ResponseMessage\":\"PENDING\",\"moreInformation\":\"Backend did not respond within specified time\"}"
        },
        {
            "app_name": "zingtechprdgateway",
            "datetime": "2025-05-19T06:57:31.268Z",
            "event_id": "b18721836ab17b3a9d5ca66f6ead5ef1878b7fe4",
            "global_transaction_id": "9493e454682ad65b02945390",
            "response_body": "{\"ResponseCode\":\"012\",\"ResponseMessage\":\"PENDING\",\"moreInformation\":\"Backend did not respond within specified time\"}"
        },
        {
            "app_name": "zingtechprdgateway",
            "datetime": "2025-05-19T04:26:28.126Z",
            "event_id": "3d8f031564c5169ad56813259fe9f67ab6b3b094",
            "global_transaction_id": "dd51bf1b682ab2f4027fc501",
            "response_body": "{\"ResponseCode\":\"012\",\"ResponseMessage\":\"PENDING\",\"moreInformation\":\"Backend did not respond within specified time\"}"
        },
        {
            "app_name": "zingtechprdgateway",
            "datetime": "2025-05-19T04:26:26.049Z",
            "event_id": "0c72f1a46db7c322e9fcaab8cd8728eb7db3d6bc",
            "global_transaction_id": "dd51bf1b682ab2f2027fc401",
            "response_body": "{\"ResponseCode\":\"012\",\"ResponseMessage\":\"PENDING\",\"moreInformation\":\"Backend did not respond within specified time\"}"
        },
        {
            "app_name": "zingtechprdgateway",
            "datetime": "2025-05-19T04:26:24.835Z",
            "event_id": "d3a0888812f89865a8c344cc4f5729f435679155",
            "global_transaction_id": "9493e454682ab2f00280da90",
            "response_body": "{\"ResponseCode\":\"012\",\"ResponseMessage\":\"PENDING\",\"moreInformation\":\"Backend did not respond within specified time\"}"
        },
        {
            "app_name": "zingtechprdgateway",
            "datetime": "2025-05-19T04:26:24.416Z",
            "event_id": "aa7b18d0ed5b0871ca604a6a2a24b1d8d4021fd5",
            "global_transaction_id": "7fd914a5682ab2f0027f7b71",
            "response_body": "{\"ResponseCode\":\"012\",\"ResponseMessage\":\"PENDING\",\"moreInformation\":\"Backend did not respond within specified time\"}"
        },
        {
            "app_name": "zingtechprdgateway",
            "datetime": "2025-05-19T04:26:21.720Z",
            "event_id": "30d4ea625effcb876ae762fe6125823035220520",
            "global_transaction_id": "7fd914a5682ab2ed027f7ac1",
            "response_body": "{\"ResponseCode\":\"012\",\"ResponseMessage\":\"PENDING\",\"moreInformation\":\"Backend did not respond within specified time\"}"
        },
        {
            "app_name": "zingtechprdgateway",
            "datetime": "2025-05-19T04:26:19.225Z",
            "event_id": "0accbc5387606b6db3cc304b2fbf3de4d6100035",
            "global_transaction_id": "9493e454682ab2eb027fb471",
            "response_body": "{\"ResponseCode\":\"012\",\"ResponseMessage\":\"PENDING\",\"moreInformation\":\"Backend did not respond within specified time\"}"
        },
        {
            "app_name": "zingtechprdgateway",
            "datetime": "2025-05-19T04:26:14.923Z",
            "event_id": "6499a593738144a230b68be245e1c6266c777f5d",
            "global_transaction_id": "9493e454682ab2e6027fb2d1",
            "response_body": "{\"ResponseCode\":\"012\",\"ResponseMessage\":\"PENDING\",\"moreInformation\":\"Backend did not respond within specified time\"}"
        },
        {
            "app_name": "zingtechprdgateway",
            "datetime": "2025-05-19T04:26:14.708Z",
            "event_id": "12aa510d08d388b192cd0fa066211fae8dfd0ced",
            "global_transaction_id": "7fd914a5682ab2e6027f7891",
            "response_body": "{\"ResponseCode\":\"012\",\"ResponseMessage\":\"PENDING\",\"moreInformation\":\"Backend did not respond within specified time\"}"
        },
        {
            "app_name": "zingtechprdgateway",
            "datetime": "2025-05-19T04:26:14.650Z",
            "event_id": "42f0eb3d54a2b9e6c3ee2fd49feca756e7a7256e",
            "global_transaction_id": "9493e454682ab2e6027fb2b1",
            "response_body": "{\"ResponseCode\":\"012\",\"ResponseMessage\":\"PENDING\",\"moreInformation\":\"Backend did not respond within specified time\"}"
        },
        {
            "app_name": "zingtechprdgateway",
            "datetime": "2025-05-19T04:26:14.615Z",
            "event_id": "c60039f0f50eb791c5e031307e66720300aa1d27",
            "global_transaction_id": "9493e454682ab2e60280d7c0",
            "response_body": "{\"ResponseCode\":\"012\",\"ResponseMessage\":\"PENDING\",\"moreInformation\":\"Backend did not respond within specified time\"}"
        },
        {
            "app_name": "zingtechprdgateway",
            "datetime": "2025-05-19T04:26:14.339Z",
            "event_id": "3aa699384c81cbb0d8fe410827bdccd833c0969b",
            "global_transaction_id": "7fd914a5682ab2e6027f7851",
            "response_body": "{\"ResponseCode\":\"012\",\"ResponseMessage\":\"PENDING\",\"moreInformation\":\"Backend did not respond within specified time\"}"
        },
        {
            "app_name": "zingtechprdgateway",
            "datetime": "2025-05-19T04:26:13.612Z",
            "event_id": "1c057c1c3972e87c3c5185ae9e3dee4ae8560e47",
            "global_transaction_id": "7fd914a5682ab2e5027f77f1",
            "response_body": "{\"ResponseCode\":\"012\",\"ResponseMessage\":\"PENDING\",\"moreInformation\":\"Backend did not respond within specified time\"}"
        },
        {
            "app_name": "zingtechprdgateway",
            "datetime": "2025-05-18T22:08:44.036Z",
            "event_id": "b8d418654ec0de76d9429957b6a2daae034758da",
            "global_transaction_id": "9493e454682a5a6c025cf1d1",
            "response_body": "{\"ResponseCode\":\"012\",\"ResponseMessage\":\"36779853003\",\"TransactionStatus\":\"PENDING\"}"
        },
        {
            "app_name": "zingtechprdgateway",
            "datetime": "2025-05-18T21:52:02.734Z",
            "event_id": "e6419457452abc7786f959d01b6132d1cd334878",
            "global_transaction_id": "dd51bf1b682a5682025b7f01",
            "response_body": "{\"ResponseCode\":\"012\",\"ResponseMessage\":\"36779772779\",\"TransactionStatus\":\"PENDING\"}"
        },
        {
            "app_name": "zingtechprdgateway",
            "datetime": "2025-05-18T21:46:34.107Z",
            "event_id": "fbc0b081b40f08917ef5031938002a0944bee72f",
            "global_transaction_id": "7fd914a5682a553a025aa5c1",
            "response_body": "{\"ResponseCode\":\"012\",\"ResponseMessage\":\"36779744843\",\"TransactionStatus\":\"PENDING\"}"
        },
        {
            "app_name": "zingtechprdgateway",
            "datetime": "2025-05-18T21:45:27.502Z",
            "event_id": "fd8ffe85621074ff32d17f083d0629ceea8142c7",
            "global_transaction_id": "9493e454682a54f7025bcfb0",
            "response_body": "{\"ResponseCode\":\"012\",\"ResponseMessage\":\"36779736867\",\"TransactionStatus\":\"PENDING\"}"
        },
        {
            "app_name": "zingtechprdgateway",
            "datetime": "2025-05-18T21:45:23.061Z",
            "event_id": "0876bcb7cb4824d05be25cf78576892be8c44e65",
            "global_transaction_id": "7fd914a5682a54f3025a8ae1",
            "response_body": "{\"ResponseCode\":\"012\",\"ResponseMessage\":\"36779736409\",\"TransactionStatus\":\"PENDING\"}"
        },
        {
            "app_name": "zingtechprdgateway",
            "datetime": "2025-05-18T21:45:10.007Z",
            "event_id": "93882fb5c5be7b12ac6b9ef145355ff1391f90c4",
            "global_transaction_id": "dd51bf1b682a54e6025ad991",
            "response_body": "{\"ResponseCode\":\"012\",\"ResponseMessage\":\"36779734896\",\"TransactionStatus\":\"PENDING\"}"
        },
        {
            "app_name": "zingtechprdgateway",
            "datetime": "2025-05-18T21:42:28.153Z",
            "event_id": "54658401ef13db0902c3910e3283b3457f23988e",
            "global_transaction_id": "7fd914a5682a5444025a49d1",
            "response_body": "{\"ResponseCode\":\"09\",\"ResponseMessage\":\"PENDING\",\"TransactionStatus\":\"https:\/\/m3-service:8080\/zingtechprdgateway\/cashin\"}"
        },
        {
            "app_name": "zingtechprdgateway",
            "datetime": "2025-05-18T21:39:26.112Z",
            "event_id": "a2fafe5cbce6e2373aafff58c9b694fe9ddb4b3a",
            "global_transaction_id": "7fd914a5682a538e025de350",
            "response_body": "{\"ResponseCode\":\"012\",\"ResponseMessage\":\"36779713084\",\"TransactionStatus\":\"PENDING\"}"
        },
        {
            "app_name": "zingtechprdgateway",
            "datetime": "2025-05-18T21:33:35.003Z",
            "event_id": "602b6954b2d697f841eee77a182c2127f0c473ff",
            "global_transaction_id": "9493e454682a522f0259b771",
            "response_body": "{\"ResponseCode\":\"012\",\"ResponseMessage\":\"36779684491\",\"TransactionStatus\":\"PENDING\"}"
        },
        {
            "app_name": "zingtechprdgateway",
            "datetime": "2025-05-18T21:30:32.048Z",
            "event_id": "c3d9aeed20988e1160f439cc90c9ad23e999d738",
            "global_transaction_id": "dd51bf1b682a5178025b0a70",
            "response_body": "{\"ResponseCode\":\"012\",\"ResponseMessage\":\"36779669330\",\"TransactionStatus\":\"PENDING\"}"
        },
        {
            "app_name": "zingtechprdgateway",
            "datetime": "2025-05-18T21:21:08.992Z",
            "event_id": "fcb2d3ec90d2d1b6e224b0eb2940e74ce7c704f6",
            "global_transaction_id": "9493e454682a4f44025982c0",
            "response_body": "{\"ResponseCode\":\"012\",\"ResponseMessage\":\"PENDING\",\"TransactionStatus\":\"INTERNAL_ERROR\"}"
        },
        {
            "app_name": "zingtechprdgateway",
            "datetime": "2025-05-18T21:21:06.562Z",
            "event_id": "2da63a8c65e5e60b4dee1d3f50b60309990be85a",
            "global_transaction_id": "dd51bf1b682a4f42025a1f10",
            "response_body": "{\"ResponseCode\":\"012\",\"ResponseMessage\":\"PENDING\",\"moreInformation\":\"Backend did not respond within specified time\"}"
        },
        {
            "app_name": "zingtechprdgateway",
            "datetime": "2025-05-18T21:21:00.545Z",
            "event_id": "8ba391f634f879872583f9f6bb88721b9193c330",
            "global_transaction_id": "7fd914a5682a4f3c025c2770",
            "response_body": "{\"ResponseCode\":\"012\",\"ResponseMessage\":\"36779618511\",\"TransactionStatus\":\"PENDING\"}"
        },
        {
            "app_name": "zingtechprdgateway",
            "datetime": "2025-05-18T21:20:56.941Z",
            "event_id": "7b1074c3e24fafd9a2ba84a74a84c240d7e2e4d9",
            "global_transaction_id": "7fd914a5682a4f38025c2540",
            "response_body": "{\"ResponseCode\":\"09\",\"ResponseMessage\":\"PENDING\",\"TransactionStatus\":\"https:\/\/m3-service:8080\/zingtechprdgateway\/cashin\"}"
        },
        {
            "app_name": "zingtechprdgateway",
            "datetime": "2025-05-18T21:17:49.417Z",
            "event_id": "f31439b187b659158256248901af89bf666103d2",
            "global_transaction_id": "7fd914a5682a4e7d025bd690",
            "response_body": "{\"ResponseCode\":\"012\",\"ResponseMessage\":\"36779602021\",\"TransactionStatus\":\"PENDING\"}"
        },
        {
            "app_name": "zingtechprdgateway",
            "datetime": "2025-05-18T19:52:41.886Z",
            "event_id": "aa99d95ce20ac39575f49a5d546c962ad10dcda5",
            "global_transaction_id": "dd51bf1b682a3a89024f50c1",
            "response_body": "{\"ResponseCode\":\"012\",\"ResponseMessage\":\"PENDING\",\"moreInformation\":\"Backend did not respond within specified time\"}"
        },
        {
            "app_name": "zingtechprdgateway",
            "datetime": "2025-05-18T19:52:41.101Z",
            "event_id": "8a7c762af1b0944be8317fc7ec72e107eb8d631f",
            "global_transaction_id": "dd51bf1b682a3a890250d1d0",
            "response_body": "{\"ResponseCode\":\"012\",\"ResponseMessage\":\"PENDING\",\"moreInformation\":\"Backend did not respond within specified time\"}"
        },
        {
            "app_name": "zingtechprdgateway",
            "datetime": "2025-05-18T18:15:24.516Z",
            "event_id": "66ae4622455b49fbfda6423578071d7156f82cb7",
            "global_transaction_id": "dd51bf1b682a23bc02447d81",
            "response_body": "{\"ResponseCode\":\"012\",\"ResponseMessage\":\"PENDING\",\"moreInformation\":\"Backend did not respond within specified time\"}"
        },
        {
            "app_name": "zingtechprdgateway",
            "datetime": "2025-05-18T18:00:54.234Z",
            "event_id": "a867eb101d409bb33a1a8026f793a6ffe236bc1e",
            "global_transaction_id": "9493e454682a20560243c0d0",
            "response_body": "{\"ResponseCode\":\"012\",\"ResponseMessage\":\"PENDING\",\"moreInformation\":\"Backend did not respond within specified time\"}"
        },
        {
            "app_name": "zingtechprdgateway",
            "datetime": "2025-05-18T18:00:54.211Z",
            "event_id": "9a2fd387384b5fe367bc2c8c11caf81ffa8fc87d",
            "global_transaction_id": "7fd914a5682a20560242b6e1",
            "response_body": "{\"ResponseCode\":\"012\",\"ResponseMessage\":\"PENDING\",\"moreInformation\":\"Backend did not respond within specified time\"}"
        },
        {
            "app_name": "zingtechprdgateway",
            "datetime": "2025-05-18T18:00:53.797Z",
            "event_id": "d953f72ceeb5e8efe3e06cac6cc4dc9e3f2ae095",
            "global_transaction_id": "7fd914a5682a20550242b681",
            "response_body": "{\"ResponseCode\":\"012\",\"ResponseMessage\":\"PENDING\",\"moreInformation\":\"Backend did not respond within specified time\"}"
        },
        {
            "app_name": "zingtechprdgateway",
            "datetime": "2025-05-18T17:50:43.337Z",
            "event_id": "7c79c66480d46fbe80614144af3a1a32b84668f2",
            "global_transaction_id": "dd51bf1b682a1df302433ce0",
            "response_body": "{\"ResponseCode\":\"012\",\"ResponseMessage\":\"PENDING\",\"moreInformation\":\"Backend did not respond within specified time\"}"
        },
        {
            "app_name": "zingtechprdgateway",
            "datetime": "2025-05-18T15:51:49.860Z",
            "event_id": "3655f5714422b1370917f599c072649526ccd9b5",
            "global_transaction_id": "dd51bf1b682a021502341201",
            "response_body": "{\"ResponseCode\":\"012\",\"ResponseMessage\":\"PENDING\",\"moreInformation\":\"Backend did not respond within specified time\"}"
        }
    ]
}
